^C:\EE'S\EE1103\EE1103\ABOUTGRAPHDLG.RESX|C:\EE'S\EE1103\EE1103\EEAPPSPECIFIC\FORMS\FRMENCODERPOSITION.RESX|C:\EE'S\EE1103\EE1103\EEAPPSPECIFIC\FORMS\FRMENR.RESX|C:\EE'S\EE1103\EE1103\EEAPPSPECIFIC\FORMS\FRMGRAPHADR.RESX|C:\EE'S\EE1103\EE1103\EEAPPSPECIFIC\FORMS\FRMLINEARENCODERPOSITION.RESX|C:\EE'S\EE1103\EE1103\EEAPPSPECIFIC\FORMS\FRMMANUALPOSITIONANDTEST.RESX|C:\EE'S\EE1103\EE1103\EEAPPSPECIFIC\FORMS\FRMMONITORDAQ.RESX|C:\EE'S\EE1103\EE1103\EEAPPSPECIFIC\FORMS\FRMOLDLOTS.RESX|C:\EE'S\EE1103\EE1103\EEAPPSPECIFIC\FORMS\FRMPLOTPOINTSIZESELECTION.RESX|C:\EE'S\EE1103\EE1103\EEAPPSPECIFIC\FORMS\FRMSERVOMOTORCONTROL.RESX|C:\EE'S\EE1103\EE1103\EEAPPSPECIFIC\FORMS\FRMSPLASH.RESX|C:\EE'S\EE1103\EE1103\EEAPPSPECIFIC\FORMS\FRMTSOPMAIN.RESX|C:\EE'S\EE1103\EE1103\EEAPPSPECIFIC\FORMS\FRMVERIFYPEDALARMRETURN.RESX|C:\EE'S\EE1103\EE1103\EEAPPSPECIFIC\FORMS\FRMVIX500IE.RESX|C:\EE'S\EE1103\EE1103\EESTANDARD\FORMS\FRMDCMOTORCAL.RESX|C:\EE'S\EE1103\EE1103\EESTANDARD\FORMS\FRMDCMOTORCONTROL.RESX|C:\EE'S\EE1103\EE1103\EESTANDARD\FORMS\FRMOPCTEST.RESX|C:\EE'S\EE1103\EE1103\EESTANDARD\FORMS\FRMPASSWORDDIALOG.RESX|C:\EE'S\EE1103\EE1103\MY PROJECT\RESOURCES.RESX
C:\EE'S\EE1103\EE1103\OBJ\DEBUG\EE1103.ABOUTGRAPHDLG.RESOURCES
C:\EE'S\EE1103\EE1103\OBJ\DEBUG\EE1103.FRMENCODERPOSITION.RESOURCES
C:\EE'S\EE1103\EE1103\OBJ\DEBUG\EE1103.FRMENR.RESOURCES
C:\EE'S\EE1103\EE1103\OBJ\DEBUG\EE1103.FRMGRAPHADR.RESOURCES
C:\EE'S\EE1103\EE1103\OBJ\DEBUG\EE1103.FRMLINEARENCODERPOSITION.RESOURCES
C:\EE'S\EE1103\EE1103\OBJ\DEBUG\EE1103.FRMMANUALPOSITIONANDTEST.RESOURCES
C:\EE'S\EE1103\EE1103\OBJ\DEBUG\EE1103.FRMMONITORDAQ.RESOURCES
C:\EE'S\EE1103\EE1103\OBJ\DEBUG\EE1103.FRMOLDLOTS.RESOURCES
C:\EE'S\EE1103\EE1103\OBJ\DEBUG\EE1103.FRMPLOTPOINTSIZESELECTION.RESOURCES
C:\EE'S\EE1103\EE1103\OBJ\DEBUG\EE1103.FRMSERVOMOTORCONTROL.RESOURCES
C:\EE'S\EE1103\EE1103\OBJ\DEBUG\EE1103.FRMSPLASH.RESOURCES
C:\EE'S\EE1103\EE1103\OBJ\DEBUG\EE1103.FRMTSOPMAIN.RESOURCES
C:\EE'S\EE1103\EE1103\OBJ\DEBUG\EE1103.FRMVERIFYPEDALARMRETURN.RESOURCES
C:\EE'S\EE1103\EE1103\OBJ\DEBUG\EE1103.FRMVIX500IE.RESOURCES
C:\EE'S\EE1103\EE1103\OBJ\DEBUG\EE1103.FRMDCMOTORCAL.RESOURCES
C:\EE'S\EE1103\EE1103\OBJ\DEBUG\EE1103.FRMDCMOTORCONTROL.RESOURCES
C:\EE'S\EE1103\EE1103\OBJ\DEBUG\EE1103.FRMOPCTEST.RESOURCES
C:\EE'S\EE1103\EE1103\OBJ\DEBUG\EE1103.FRMPASSWORDDIALOG.RESOURCES
C:\EE'S\EE1103\EE1103\OBJ\DEBUG\EE1103.RESOURCES.RESOURCES
^C:\EE'S\EE1103\EE1103\ABOUTGRAPHDLG.RESX|C:\EE'S\EE1103\EE1103\EEAPPSPECIFIC\FORMS\FRMENCODERPOSITION.RESX|C:\EE'S\EE1103\EE1103\EEAPPSPECIFIC\FORMS\FRMENR.RESX|C:\EE'S\EE1103\EE1103\EEAPPSPECIFIC\FORMS\FRMGRAPHADR.RESX|C:\EE'S\EE1103\EE1103\EEAPPSPECIFIC\FORMS\FRMLINEARENCODERPOSITION.RESX|C:\EE'S\EE1103\EE1103\EEAPPSPECIFIC\FORMS\FRMMANUALPOSITIONANDTEST.RESX|C:\EE'S\EE1103\EE1103\EEAPPSPECIFIC\FORMS\FRMMONITORDAQ.RESX|C:\EE'S\EE1103\EE1103\EEAPPSPECIFIC\FORMS\FRMOLDLOTS.RESX|C:\EE'S\EE1103\EE1103\EEAPPSPECIFIC\FORMS\FRMPLOTPOINTSIZESELECTION.RESX|C:\EE'S\EE1103\EE1103\EEAPPSPECIFIC\FORMS\FRMSERVOMOTORCONTROL.RESX|C:\EE'S\EE1103\EE1103\EEAPPSPECIFIC\FORMS\FRMSPLASH.RESX|C:\EE'S\EE1103\EE1103\EEAPPSPECIFIC\FORMS\FRMTSOPMAIN.RESX|C:\EE'S\EE1103\EE1103\EEAPPSPECIFIC\FORMS\FRMVERIFYPEDALARMRETURN.RESX|C:\EE'S\EE1103\EE1103\EEAPPSPECIFIC\FORMS\FRMVIX500IE.RESX|C:\EE'S\EE1103\EE1103\EESTANDARD\FORMS\FRMDCMOTORCAL.RESX|C:\EE'S\EE1103\EE1103\EESTANDARD\FORMS\FRMDCMOTORCONTROL.RESX|C:\EE'S\EE1103\EE1103\EESTANDARD\FORMS\FRMOPCTEST.RESX|C:\EE'S\EE1103\EE1103\EESTANDARD\FORMS\FRMPASSWORDDIALOG.RESX|C:\EE'S\EE1103\EE1103\FORM1.RESX|C:\EE'S\EE1103\EE1103\MY PROJECT\RESOURCES.RESX
C:\EE'S\EE1103\EE1103\OBJ\DEBUG\EE1103.ABOUTGRAPHDLG.RESOURCES
C:\EE'S\EE1103\EE1103\OBJ\DEBUG\EE1103.FRMENCODERPOSITION.RESOURCES
C:\EE'S\EE1103\EE1103\OBJ\DEBUG\EE1103.FRMENR.RESOURCES
C:\EE'S\EE1103\EE1103\OBJ\DEBUG\EE1103.FRMGRAPHADR.RESOURCES
C:\EE'S\EE1103\EE1103\OBJ\DEBUG\EE1103.FRMLINEARENCODERPOSITION.RESOURCES
C:\EE'S\EE1103\EE1103\OBJ\DEBUG\EE1103.FRMMANUALPOSITIONANDTEST.RESOURCES
C:\EE'S\EE1103\EE1103\OBJ\DEBUG\EE1103.FRMMONITORDAQ.RESOURCES
C:\EE'S\EE1103\EE1103\OBJ\DEBUG\EE1103.FRMOLDLOTS.RESOURCES
C:\EE'S\EE1103\EE1103\OBJ\DEBUG\EE1103.FRMPLOTPOINTSIZESELECTION.RESOURCES
C:\EE'S\EE1103\EE1103\OBJ\DEBUG\EE1103.FRMSERVOMOTORCONTROL.RESOURCES
C:\EE'S\EE1103\EE1103\OBJ\DEBUG\EE1103.FRMSPLASH.RESOURCES
C:\EE'S\EE1103\EE1103\OBJ\DEBUG\EE1103.FRMTSOPMAIN.RESOURCES
C:\EE'S\EE1103\EE1103\OBJ\DEBUG\EE1103.FRMVERIFYPEDALARMRETURN.RESOURCES
C:\EE'S\EE1103\EE1103\OBJ\DEBUG\EE1103.FRMVIX500IE.RESOURCES
C:\EE'S\EE1103\EE1103\OBJ\DEBUG\EE1103.FRMDCMOTORCAL.RESOURCES
C:\EE'S\EE1103\EE1103\OBJ\DEBUG\EE1103.FRMDCMOTORCONTROL.RESOURCES
C:\EE'S\EE1103\EE1103\OBJ\DEBUG\EE1103.FRMOPCTEST.RESOURCES
C:\EE'S\EE1103\EE1103\OBJ\DEBUG\EE1103.FRMPASSWORDDIALOG.RESOURCES
C:\EE'S\EE1103\EE1103\OBJ\DEBUG\EE1103.FORM1.RESOURCES
C:\EE'S\EE1103\EE1103\OBJ\DEBUG\EE1103.RESOURCES.RESOURCES
^C:\SOFTWARE DEVELOPMENT\EE'S\EE1106_NODAQ\EE1106\ABOUTGRAPHDLG.RESX|C:\SOFTWARE DEVELOPMENT\EE'S\EE1106_NODAQ\EE1106\EEAPPSPECIFIC\FORMS\FORM2.RESX|C:\SOFTWARE DEVELOPMENT\EE'S\EE1106_NODAQ\EE1106\EEAPPSPECIFIC\FORMS\FRMENCODERPOSITION.RESX|C:\SOFTWARE DEVELOPMENT\EE'S\EE1106_NODAQ\EE1106\EEAPPSPECIFIC\FORMS\FRMENR.RESX|C:\SOFTWARE DEVELOPMENT\EE'S\EE1106_NODAQ\EE1106\EEAPPSPECIFIC\FORMS\FRMGRAPHADR.RESX|C:\SOFTWARE DEVELOPMENT\EE'S\EE1106_NODAQ\EE1106\EEAPPSPECIFIC\FORMS\FRMLINEARENCODERPOSITION.RESX|C:\SOFTWARE DEVELOPMENT\EE'S\EE1106_NODAQ\EE1106\EEAPPSPECIFIC\FORMS\FRMMANUALPOSITIONANDTEST.RESX|C:\SOFTWARE DEVELOPMENT\EE'S\EE1106_NODAQ\EE1106\EEAPPSPECIFIC\FORMS\FRMMLX90277.RESX|C:\SOFTWARE DEVELOPMENT\EE'S\EE1106_NODAQ\EE1106\EEAPPSPECIFIC\FORMS\FRMMONITORDAQ.RESX|C:\SOFTWARE DEVELOPMENT\EE'S\EE1106_NODAQ\EE1106\EEAPPSPECIFIC\FORMS\FRMOLDLOTS.RESX|C:\SOFTWARE DEVELOPMENT\EE'S\EE1106_NODAQ\EE1106\EEAPPSPECIFIC\FORMS\FRMPLOTPOINTSIZESELECTION.RESX|C:\SOFTWARE DEVELOPMENT\EE'S\EE1106_NODAQ\EE1106\EEAPPSPECIFIC\FORMS\FRMSERVOMOTORCONTROL.RESX|C:\SOFTWARE DEVELOPMENT\EE'S\EE1106_NODAQ\EE1106\EEAPPSPECIFIC\FORMS\FRMSPLASH.RESX|C:\SOFTWARE DEVELOPMENT\EE'S\EE1106_NODAQ\EE1106\EEAPPSPECIFIC\FORMS\FRMTSOPMAIN.RESX|C:\SOFTWARE DEVELOPMENT\EE'S\EE1106_NODAQ\EE1106\EEAPPSPECIFIC\FORMS\FRMVERIFYPEDALARMRETURN.RESX|C:\SOFTWARE DEVELOPMENT\EE'S\EE1106_NODAQ\EE1106\EEAPPSPECIFIC\FORMS\FRMVIX500IE.RESX|C:\SOFTWARE DEVELOPMENT\EE'S\EE1106_NODAQ\EE1106\EESTANDARD\FORMS\FRMDCMOTORCAL.RESX|C:\SOFTWARE DEVELOPMENT\EE'S\EE1106_NODAQ\EE1106\EESTANDARD\FORMS\FRMDCMOTORCONTROL.RESX|C:\SOFTWARE DEVELOPMENT\EE'S\EE1106_NODAQ\EE1106\EESTANDARD\FORMS\FRMOPCTEST.RESX|C:\SOFTWARE DEVELOPMENT\EE'S\EE1106_NODAQ\EE1106\EESTANDARD\FORMS\FRMPASSWORDDIALOG.RESX|C:\SOFTWARE DEVELOPMENT\EE'S\EE1106_NODAQ\EE1106\FORM1.RESX|C:\SOFTWARE DEVELOPMENT\EE'S\EE1106_NODAQ\EE1106\MY PROJECT\RESOURCES.RESX
C:\SOFTWARE DEVELOPMENT\EE'S\EE1106_NODAQ\EE1106\OBJ\DEBUG\EE1106.ABOUTGRAPHDLG.RESOURCES
C:\SOFTWARE DEVELOPMENT\EE'S\EE1106_NODAQ\EE1106\OBJ\DEBUG\EE1106.FORM2.RESOURCES
C:\SOFTWARE DEVELOPMENT\EE'S\EE1106_NODAQ\EE1106\OBJ\DEBUG\EE1106.FRMENCODERPOSITION.RESOURCES
C:\SOFTWARE DEVELOPMENT\EE'S\EE1106_NODAQ\EE1106\OBJ\DEBUG\EE1106.FRMENR.RESOURCES
C:\SOFTWARE DEVELOPMENT\EE'S\EE1106_NODAQ\EE1106\OBJ\DEBUG\EE1106.FRMGRAPHADR.RESOURCES
C:\SOFTWARE DEVELOPMENT\EE'S\EE1106_NODAQ\EE1106\OBJ\DEBUG\EE1106.FRMLINEARENCODERPOSITION.RESOURCES
C:\SOFTWARE DEVELOPMENT\EE'S\EE1106_NODAQ\EE1106\OBJ\DEBUG\EE1106.FRMMANUALPOSITIONANDTEST.RESOURCES
C:\SOFTWARE DEVELOPMENT\EE'S\EE1106_NODAQ\EE1106\OBJ\DEBUG\EE1106.FRMMLX90277.RESOURCES
C:\SOFTWARE DEVELOPMENT\EE'S\EE1106_NODAQ\EE1106\OBJ\DEBUG\EE1106.FRMMONITORDAQ.RESOURCES
C:\SOFTWARE DEVELOPMENT\EE'S\EE1106_NODAQ\EE1106\OBJ\DEBUG\EE1106.FRMOLDLOTS.RESOURCES
C:\SOFTWARE DEVELOPMENT\EE'S\EE1106_NODAQ\EE1106\OBJ\DEBUG\EE1106.FRMPLOTPOINTSIZESELECTION.RESOURCES
C:\SOFTWARE DEVELOPMENT\EE'S\EE1106_NODAQ\EE1106\OBJ\DEBUG\EE1106.FRMSERVOMOTORCONTROL.RESOURCES
C:\SOFTWARE DEVELOPMENT\EE'S\EE1106_NODAQ\EE1106\OBJ\DEBUG\EE1106.FRMSPLASH.RESOURCES
C:\SOFTWARE DEVELOPMENT\EE'S\EE1106_NODAQ\EE1106\OBJ\DEBUG\EE1106.FRMTSOPMAIN.RESOURCES
C:\SOFTWARE DEVELOPMENT\EE'S\EE1106_NODAQ\EE1106\OBJ\DEBUG\EE1106.FRMVERIFYPEDALARMRETURN.RESOURCES
C:\SOFTWARE DEVELOPMENT\EE'S\EE1106_NODAQ\EE1106\OBJ\DEBUG\EE1106.FRMVIX500IE.RESOURCES
C:\SOFTWARE DEVELOPMENT\EE'S\EE1106_NODAQ\EE1106\OBJ\DEBUG\EE1106.FRMDCMOTORCAL.RESOURCES
C:\SOFTWARE DEVELOPMENT\EE'S\EE1106_NODAQ\EE1106\OBJ\DEBUG\EE1106.FRMDCMOTORCONTROL.RESOURCES
C:\SOFTWARE DEVELOPMENT\EE'S\EE1106_NODAQ\EE1106\OBJ\DEBUG\EE1106.FRMOPCTEST.RESOURCES
C:\SOFTWARE DEVELOPMENT\EE'S\EE1106_NODAQ\EE1106\OBJ\DEBUG\EE1106.FRMPASSWORDDIALOG.RESOURCES
C:\SOFTWARE DEVELOPMENT\EE'S\EE1106_NODAQ\EE1106\OBJ\DEBUG\EE1106.FORM1.RESOURCES
C:\SOFTWARE DEVELOPMENT\EE'S\EE1106_NODAQ\EE1106\OBJ\DEBUG\EE1106.RESOURCES.RESOURCES
^C:\SOFTWARE DEVELOPMENT\EE'S\EE1106_MAYBENEWLEAK\EE1106\ABOUTGRAPHDLG.RESX|C:\SOFTWARE DEVELOPMENT\EE'S\EE1106_MAYBENEWLEAK\EE1106\EEAPPSPECIFIC\FORMS\FORM1.RESX|C:\SOFTWARE DEVELOPMENT\EE'S\EE1106_MAYBENEWLEAK\EE1106\EEAPPSPECIFIC\FORMS\FORM2.RESX|C:\SOFTWARE DEVELOPMENT\EE'S\EE1106_MAYBENEWLEAK\EE1106\EEAPPSPECIFIC\FORMS\FRMOLDLOTS.RESX|C:\SOFTWARE DEVELOPMENT\EE'S\EE1106_MAYBENEWLEAK\EE1106\EEAPPSPECIFIC\FORMS\FRMPLOTPOINTSIZESELECTION.RESX|C:\SOFTWARE DEVELOPMENT\EE'S\EE1106_MAYBENEWLEAK\EE1106\EEAPPSPECIFIC\FORMS\FRMSPLASH.RESX|C:\SOFTWARE DEVELOPMENT\EE'S\EE1106_MAYBENEWLEAK\EE1106\EEAPPSPECIFIC\FORMS\FRMTSOPMAIN.RESX|C:\SOFTWARE DEVELOPMENT\EE'S\EE1106_MAYBENEWLEAK\EE1106\EESTANDARD\FORMS\FRMOPCTEST.RESX|C:\SOFTWARE DEVELOPMENT\EE'S\EE1106_MAYBENEWLEAK\EE1106\EESTANDARD\FORMS\FRMPASSWORDDIALOG.RESX|C:\SOFTWARE DEVELOPMENT\EE'S\EE1106_MAYBENEWLEAK\EE1106\MY PROJECT\RESOURCES.RESX
C:\SOFTWARE DEVELOPMENT\EE'S\EE1106_MAYBENEWLEAK\EE1106\OBJ\DEBUG\EE1106.ABOUTGRAPHDLG.RESOURCES
C:\SOFTWARE DEVELOPMENT\EE'S\EE1106_MAYBENEWLEAK\EE1106\OBJ\DEBUG\EE1106.FORM1.RESOURCES
C:\SOFTWARE DEVELOPMENT\EE'S\EE1106_MAYBENEWLEAK\EE1106\OBJ\DEBUG\EE1106.FORM2.RESOURCES
C:\SOFTWARE DEVELOPMENT\EE'S\EE1106_MAYBENEWLEAK\EE1106\OBJ\DEBUG\EE1106.FRMOLDLOTS.RESOURCES
C:\SOFTWARE DEVELOPMENT\EE'S\EE1106_MAYBENEWLEAK\EE1106\OBJ\DEBUG\EE1106.FRMPLOTPOINTSIZESELECTION.RESOURCES
C:\SOFTWARE DEVELOPMENT\EE'S\EE1106_MAYBENEWLEAK\EE1106\OBJ\DEBUG\EE1106.FRMSPLASH.RESOURCES
C:\SOFTWARE DEVELOPMENT\EE'S\EE1106_MAYBENEWLEAK\EE1106\OBJ\DEBUG\EE1106.FRMTSOPMAIN.RESOURCES
C:\SOFTWARE DEVELOPMENT\EE'S\EE1106_MAYBENEWLEAK\EE1106\OBJ\DEBUG\EE1106.FRMOPCTEST.RESOURCES
C:\SOFTWARE DEVELOPMENT\EE'S\EE1106_MAYBENEWLEAK\EE1106\OBJ\DEBUG\EE1106.FRMPASSWORDDIALOG.RESOURCES
C:\SOFTWARE DEVELOPMENT\EE'S\EE1106_MAYBENEWLEAK\EE1106\OBJ\DEBUG\EE1106.RESOURCES.RESOURCES
^C:\SOFTWARE DEVELOPMENT\EE'S\EE1131, 64X NEW APS CAL SW\EE1131V1000\EE1131\ACTSOUNDFORM.RESX|C:\SOFTWARE DEVELOPMENT\EE'S\EE1131, 64X NEW APS CAL SW\EE1131V1000\EE1131\EESTANDARD\CAN\FRMCANTESTPANEL.RESX|C:\SOFTWARE DEVELOPMENT\EE'S\EE1131, 64X NEW APS CAL SW\EE1131V1000\EE1131\EESTANDARD\CONTROL AND INTERFACE\FRMOLDLOTS.RESX|C:\SOFTWARE DEVELOPMENT\EE'S\EE1131, 64X NEW APS CAL SW\EE1131V1000\EE1131\EESTANDARD\CONTROL AND INTERFACE\FRMPASSWORDDIALOG.RESX|C:\SOFTWARE DEVELOPMENT\EE'S\EE1131, 64X NEW APS CAL SW\EE1131V1000\EE1131\EESTANDARD\CONTROL AND INTERFACE\FRMSPLASH.RESX|C:\SOFTWARE DEVELOPMENT\EE'S\EE1131, 64X NEW APS CAL SW\EE1131V1000\EE1131\EESTANDARD\GRAPHING\ABOUTGRAPHDLG.RESX|C:\SOFTWARE DEVELOPMENT\EE'S\EE1131, 64X NEW APS CAL SW\EE1131V1000\EE1131\EESTANDARD\GRAPHING\FRMPLOTPOINTSIZESELECTION.RESX|C:\SOFTWARE DEVELOPMENT\EE'S\EE1131, 64X NEW APS CAL SW\EE1131V1000\EE1131\EESTANDARD\OPC\FRMOPCTEST.RESX|C:\SOFTWARE DEVELOPMENT\EE'S\EE1131, 64X NEW APS CAL SW\EE1131V1000\EE1131\FORM1.RESX|C:\SOFTWARE DEVELOPMENT\EE'S\EE1131, 64X NEW APS CAL SW\EE1131V1000\EE1131\FRMNEWRACK.RESX|C:\SOFTWARE DEVELOPMENT\EE'S\EE1131, 64X NEW APS CAL SW\EE1131V1000\EE1131\FRMROUTING.RESX|C:\SOFTWARE DEVELOPMENT\EE'S\EE1131, 64X NEW APS CAL SW\EE1131V1000\EE1131\FRMTSOPMAIN.RESX|C:\SOFTWARE DEVELOPMENT\EE'S\EE1131, 64X NEW APS CAL SW\EE1131V1000\EE1131\MY PROJECT\RESOURCES.RESX
C:\SOFTWARE DEVELOPMENT\EE'S\EE1131, 64X NEW APS CAL SW\EE1131V1000\EE1131\OBJ\DEBUG\EE1131.SOUNDFORM.RESOURCES
C:\SOFTWARE DEVELOPMENT\EE'S\EE1131, 64X NEW APS CAL SW\EE1131V1000\EE1131\OBJ\DEBUG\EE1131.FRMCANTESTPANEL.RESOURCES
C:\SOFTWARE DEVELOPMENT\EE'S\EE1131, 64X NEW APS CAL SW\EE1131V1000\EE1131\OBJ\DEBUG\EE1131.FRMOLDLOTS.RESOURCES
C:\SOFTWARE DEVELOPMENT\EE'S\EE1131, 64X NEW APS CAL SW\EE1131V1000\EE1131\OBJ\DEBUG\EE1131.FRMPASSWORDDIALOG.RESOURCES
C:\SOFTWARE DEVELOPMENT\EE'S\EE1131, 64X NEW APS CAL SW\EE1131V1000\EE1131\OBJ\DEBUG\EE1131.FRMSPLASH.RESOURCES
C:\SOFTWARE DEVELOPMENT\EE'S\EE1131, 64X NEW APS CAL SW\EE1131V1000\EE1131\OBJ\DEBUG\EE1131.ABOUTGRAPHDLG.RESOURCES
C:\SOFTWARE DEVELOPMENT\EE'S\EE1131, 64X NEW APS CAL SW\EE1131V1000\EE1131\OBJ\DEBUG\EE1131.FRMPLOTPOINTSIZESELECTION.RESOURCES
C:\SOFTWARE DEVELOPMENT\EE'S\EE1131, 64X NEW APS CAL SW\EE1131V1000\EE1131\OBJ\DEBUG\EE1131.FRMOPCTEST.RESOURCES
C:\SOFTWARE DEVELOPMENT\EE'S\EE1131, 64X NEW APS CAL SW\EE1131V1000\EE1131\OBJ\DEBUG\EE1131.FORM1.RESOURCES
C:\SOFTWARE DEVELOPMENT\EE'S\EE1131, 64X NEW APS CAL SW\EE1131V1000\EE1131\OBJ\DEBUG\EE1131.FRMNEWRACK.RESOURCES
C:\SOFTWARE DEVELOPMENT\EE'S\EE1131, 64X NEW APS CAL SW\EE1131V1000\EE1131\OBJ\DEBUG\EE1131.FRMROUTING.RESOURCES
C:\SOFTWARE DEVELOPMENT\EE'S\EE1131, 64X NEW APS CAL SW\EE1131V1000\EE1131\OBJ\DEBUG\EE1131.FRMTSOPMAIN.RESOURCES
C:\SOFTWARE DEVELOPMENT\EE'S\EE1131, 64X NEW APS CAL SW\EE1131V1000\EE1131\OBJ\DEBUG\EE1131.RESOURCES.RESOURCES
^C:\SOFTWARE DEVELOPMENT\EE'S\EE1131, 64X NEW APS CAL SW\EE1131V1000\EE1131\EESTANDARD\CAN\FRMCANTESTPANEL.RESX|C:\SOFTWARE DEVELOPMENT\EE'S\EE1131, 64X NEW APS CAL SW\EE1131V1000\EE1131\EESTANDARD\CONTROL AND INTERFACE\FRMOLDLOTS.RESX|C:\SOFTWARE DEVELOPMENT\EE'S\EE1131, 64X NEW APS CAL SW\EE1131V1000\EE1131\EESTANDARD\CONTROL AND INTERFACE\FRMPASSWORDDIALOG.RESX|C:\SOFTWARE DEVELOPMENT\EE'S\EE1131, 64X NEW APS CAL SW\EE1131V1000\EE1131\EESTANDARD\CONTROL AND INTERFACE\FRMSPLASH.RESX|C:\SOFTWARE DEVELOPMENT\EE'S\EE1131, 64X NEW APS CAL SW\EE1131V1000\EE1131\EESTANDARD\GRAPHING\ABOUTGRAPHDLG.RESX|C:\SOFTWARE DEVELOPMENT\EE'S\EE1131, 64X NEW APS CAL SW\EE1131V1000\EE1131\EESTANDARD\GRAPHING\FRMPLOTPOINTSIZESELECTION.RESX|C:\SOFTWARE DEVELOPMENT\EE'S\EE1131, 64X NEW APS CAL SW\EE1131V1000\EE1131\EESTANDARD\OPC\FRMOPCTEST.RESX|C:\SOFTWARE DEVELOPMENT\EE'S\EE1131, 64X NEW APS CAL SW\EE1131V1000\EE1131\FORM1.RESX|C:\SOFTWARE DEVELOPMENT\EE'S\EE1131, 64X NEW APS CAL SW\EE1131V1000\EE1131\FRMNEWRACK.RESX|C:\SOFTWARE DEVELOPMENT\EE'S\EE1131, 64X NEW APS CAL SW\EE1131V1000\EE1131\FRMROUTING.RESX|C:\SOFTWARE DEVELOPMENT\EE'S\EE1131, 64X NEW APS CAL SW\EE1131V1000\EE1131\FRMTSOPMAIN.RESX|C:\SOFTWARE DEVELOPMENT\EE'S\EE1131, 64X NEW APS CAL SW\EE1131V1000\EE1131\MY PROJECT\RESOURCES.RESX
C:\SOFTWARE DEVELOPMENT\EE'S\EE1131, 64X NEW APS CAL SW\EE1131V1000\EE1131\OBJ\DEBUG\EE1131.FRMCANTESTPANEL.RESOURCES
C:\SOFTWARE DEVELOPMENT\EE'S\EE1131, 64X NEW APS CAL SW\EE1131V1000\EE1131\OBJ\DEBUG\EE1131.FRMOLDLOTS.RESOURCES
C:\SOFTWARE DEVELOPMENT\EE'S\EE1131, 64X NEW APS CAL SW\EE1131V1000\EE1131\OBJ\DEBUG\EE1131.FRMPASSWORDDIALOG.RESOURCES
C:\SOFTWARE DEVELOPMENT\EE'S\EE1131, 64X NEW APS CAL SW\EE1131V1000\EE1131\OBJ\DEBUG\EE1131.FRMSPLASH.RESOURCES
C:\SOFTWARE DEVELOPMENT\EE'S\EE1131, 64X NEW APS CAL SW\EE1131V1000\EE1131\OBJ\DEBUG\EE1131.ABOUTGRAPHDLG.RESOURCES
C:\SOFTWARE DEVELOPMENT\EE'S\EE1131, 64X NEW APS CAL SW\EE1131V1000\EE1131\OBJ\DEBUG\EE1131.FRMPLOTPOINTSIZESELECTION.RESOURCES
C:\SOFTWARE DEVELOPMENT\EE'S\EE1131, 64X NEW APS CAL SW\EE1131V1000\EE1131\OBJ\DEBUG\EE1131.FRMOPCTEST.RESOURCES
C:\SOFTWARE DEVELOPMENT\EE'S\EE1131, 64X NEW APS CAL SW\EE1131V1000\EE1131\OBJ\DEBUG\EE1131.FORM1.RESOURCES
C:\SOFTWARE DEVELOPMENT\EE'S\EE1131, 64X NEW APS CAL SW\EE1131V1000\EE1131\OBJ\DEBUG\EE1131.FRMNEWRACK.RESOURCES
C:\SOFTWARE DEVELOPMENT\EE'S\EE1131, 64X NEW APS CAL SW\EE1131V1000\EE1131\OBJ\DEBUG\EE1131.FRMROUTING.RESOURCES
C:\SOFTWARE DEVELOPMENT\EE'S\EE1131, 64X NEW APS CAL SW\EE1131V1000\EE1131\OBJ\DEBUG\EE1131.FRMTSOPMAIN.RESOURCES
C:\SOFTWARE DEVELOPMENT\EE'S\EE1131, 64X NEW APS CAL SW\EE1131V1000\EE1131\OBJ\DEBUG\EE1131.RESOURCES.RESOURCES
^C:\SOFTWARE DEVELOPMENT\EE'S\EE1131, 64X NEW APS CAL SW\EE1131V1000\EE1131\EESTANDARD\CAN\FRMCANTESTPANEL.RESX|C:\SOFTWARE DEVELOPMENT\EE'S\EE1131, 64X NEW APS CAL SW\EE1131V1000\EE1131\EESTANDARD\CONTROL AND INTERFACE\FRMOLDLOTS.RESX|C:\SOFTWARE DEVELOPMENT\EE'S\EE1131, 64X NEW APS CAL SW\EE1131V1000\EE1131\EESTANDARD\CONTROL AND INTERFACE\FRMPASSWORDDIALOG.RESX|C:\SOFTWARE DEVELOPMENT\EE'S\EE1131, 64X NEW APS CAL SW\EE1131V1000\EE1131\EESTANDARD\CONTROL AND INTERFACE\FRMSPLASH.RESX|C:\SOFTWARE DEVELOPMENT\EE'S\EE1131, 64X NEW APS CAL SW\EE1131V1000\EE1131\EESTANDARD\GRAPHING\ABOUTGRAPHDLG.RESX|C:\SOFTWARE DEVELOPMENT\EE'S\EE1131, 64X NEW APS CAL SW\EE1131V1000\EE1131\EESTANDARD\GRAPHING\FRMPLOTPOINTSIZESELECTION.RESX|C:\SOFTWARE DEVELOPMENT\EE'S\EE1131, 64X NEW APS CAL SW\EE1131V1000\EE1131\EESTANDARD\OPC\FRMOPCTEST.RESX|C:\SOFTWARE DEVELOPMENT\EE'S\EE1131, 64X NEW APS CAL SW\EE1131V1000\EE1131\FORM1.RESX|C:\SOFTWARE DEVELOPMENT\EE'S\EE1131, 64X NEW APS CAL SW\EE1131V1000\EE1131\FRMROUTING.RESX|C:\SOFTWARE DEVELOPMENT\EE'S\EE1131, 64X NEW APS CAL SW\EE1131V1000\EE1131\FRMTESTPRINTREJECTLABELS.RESX|C:\SOFTWARE DEVELOPMENT\EE'S\EE1131, 64X NEW APS CAL SW\EE1131V1000\EE1131\FRMTSOPMAIN.RESX|C:\SOFTWARE DEVELOPMENT\EE'S\EE1131, 64X NEW APS CAL SW\EE1131V1000\EE1131\MY PROJECT\RESOURCES.RESX
C:\SOFTWARE DEVELOPMENT\EE'S\EE1131, 64X NEW APS CAL SW\EE1131V1000\EE1131\OBJ\DEBUG\EE1131.FRMCANTESTPANEL.RESOURCES
C:\SOFTWARE DEVELOPMENT\EE'S\EE1131, 64X NEW APS CAL SW\EE1131V1000\EE1131\OBJ\DEBUG\EE1131.FRMOLDLOTS.RESOURCES
C:\SOFTWARE DEVELOPMENT\EE'S\EE1131, 64X NEW APS CAL SW\EE1131V1000\EE1131\OBJ\DEBUG\EE1131.FRMPASSWORDDIALOG.RESOURCES
C:\SOFTWARE DEVELOPMENT\EE'S\EE1131, 64X NEW APS CAL SW\EE1131V1000\EE1131\OBJ\DEBUG\EE1131.FRMSPLASH.RESOURCES
C:\SOFTWARE DEVELOPMENT\EE'S\EE1131, 64X NEW APS CAL SW\EE1131V1000\EE1131\OBJ\DEBUG\EE1131.ABOUTGRAPHDLG.RESOURCES
C:\SOFTWARE DEVELOPMENT\EE'S\EE1131, 64X NEW APS CAL SW\EE1131V1000\EE1131\OBJ\DEBUG\EE1131.FRMPLOTPOINTSIZESELECTION.RESOURCES
C:\SOFTWARE DEVELOPMENT\EE'S\EE1131, 64X NEW APS CAL SW\EE1131V1000\EE1131\OBJ\DEBUG\EE1131.FRMOPCTEST.RESOURCES
C:\SOFTWARE DEVELOPMENT\EE'S\EE1131, 64X NEW APS CAL SW\EE1131V1000\EE1131\OBJ\DEBUG\EE1131.FORM1.RESOURCES
C:\SOFTWARE DEVELOPMENT\EE'S\EE1131, 64X NEW APS CAL SW\EE1131V1000\EE1131\OBJ\DEBUG\EE1131.FRMROUTING.RESOURCES
C:\SOFTWARE DEVELOPMENT\EE'S\EE1131, 64X NEW APS CAL SW\EE1131V1000\EE1131\OBJ\DEBUG\EE1131.FRMTESTPRINTREJECTLABELS.RESOURCES
C:\SOFTWARE DEVELOPMENT\EE'S\EE1131, 64X NEW APS CAL SW\EE1131V1000\EE1131\OBJ\DEBUG\EE1131.FRMTSOPMAIN.RESOURCES
C:\SOFTWARE DEVELOPMENT\EE'S\EE1131, 64X NEW APS CAL SW\EE1131V1000\EE1131\OBJ\DEBUG\EE1131.RESOURCES.RESOURCES
^C:\SOFTWARE DEVELOPMENT\EE'S\EE1131, 64X NEW APS CAL SW\EE1131V1000\EE1131\EESTANDARD\CAN\FRMCANTESTPANEL.RESX|C:\SOFTWARE DEVELOPMENT\EE'S\EE1131, 64X NEW APS CAL SW\EE1131V1000\EE1131\EESTANDARD\CONTROL AND INTERFACE\FRMOLDLOTS.RESX|C:\SOFTWARE DEVELOPMENT\EE'S\EE1131, 64X NEW APS CAL SW\EE1131V1000\EE1131\EESTANDARD\CONTROL AND INTERFACE\FRMPASSWORDDIALOG.RESX|C:\SOFTWARE DEVELOPMENT\EE'S\EE1131, 64X NEW APS CAL SW\EE1131V1000\EE1131\EESTANDARD\CONTROL AND INTERFACE\FRMSPLASH.RESX|C:\SOFTWARE DEVELOPMENT\EE'S\EE1131, 64X NEW APS CAL SW\EE1131V1000\EE1131\EESTANDARD\GRAPHING\ABOUTGRAPHDLG.RESX|C:\SOFTWARE DEVELOPMENT\EE'S\EE1131, 64X NEW APS CAL SW\EE1131V1000\EE1131\EESTANDARD\GRAPHING\FRMPLOTPOINTSIZESELECTION.RESX|C:\SOFTWARE DEVELOPMENT\EE'S\EE1131, 64X NEW APS CAL SW\EE1131V1000\EE1131\EESTANDARD\OPC\FRMOPCTEST.RESX|C:\SOFTWARE DEVELOPMENT\EE'S\EE1131, 64X NEW APS CAL SW\EE1131V1000\EE1131\FORM1.RESX|C:\SOFTWARE DEVELOPMENT\EE'S\EE1131, 64X NEW APS CAL SW\EE1131V1000\EE1131\FRMADVANTECH-USB-4761.RESX|C:\SOFTWARE DEVELOPMENT\EE'S\EE1131, 64X NEW APS CAL SW\EE1131V1000\EE1131\FRMROUTING.RESX|C:\SOFTWARE DEVELOPMENT\EE'S\EE1131, 64X NEW APS CAL SW\EE1131V1000\EE1131\FRMTESTPRINTREJECTLABELS.RESX|C:\SOFTWARE DEVELOPMENT\EE'S\EE1131, 64X NEW APS CAL SW\EE1131V1000\EE1131\FRMTSOPMAIN.RESX|C:\SOFTWARE DEVELOPMENT\EE'S\EE1131, 64X NEW APS CAL SW\EE1131V1000\EE1131\MY PROJECT\RESOURCES.RESX
C:\SOFTWARE DEVELOPMENT\EE'S\EE1131, 64X NEW APS CAL SW\EE1131V1000\EE1131\OBJ\DEBUG\EE1131.FRMCANTESTPANEL.RESOURCES
C:\SOFTWARE DEVELOPMENT\EE'S\EE1131, 64X NEW APS CAL SW\EE1131V1000\EE1131\OBJ\DEBUG\EE1131.FRMOLDLOTS.RESOURCES
C:\SOFTWARE DEVELOPMENT\EE'S\EE1131, 64X NEW APS CAL SW\EE1131V1000\EE1131\OBJ\DEBUG\EE1131.FRMPASSWORDDIALOG.RESOURCES
C:\SOFTWARE DEVELOPMENT\EE'S\EE1131, 64X NEW APS CAL SW\EE1131V1000\EE1131\OBJ\DEBUG\EE1131.FRMSPLASH.RESOURCES
C:\SOFTWARE DEVELOPMENT\EE'S\EE1131, 64X NEW APS CAL SW\EE1131V1000\EE1131\OBJ\DEBUG\EE1131.ABOUTGRAPHDLG.RESOURCES
C:\SOFTWARE DEVELOPMENT\EE'S\EE1131, 64X NEW APS CAL SW\EE1131V1000\EE1131\OBJ\DEBUG\EE1131.FRMPLOTPOINTSIZESELECTION.RESOURCES
C:\SOFTWARE DEVELOPMENT\EE'S\EE1131, 64X NEW APS CAL SW\EE1131V1000\EE1131\OBJ\DEBUG\EE1131.FRMOPCTEST.RESOURCES
C:\SOFTWARE DEVELOPMENT\EE'S\EE1131, 64X NEW APS CAL SW\EE1131V1000\EE1131\OBJ\DEBUG\EE1131.FORM1.RESOURCES
C:\SOFTWARE DEVELOPMENT\EE'S\EE1131, 64X NEW APS CAL SW\EE1131V1000\EE1131\OBJ\DEBUG\EE1131.FRMADVANTECH_USB_4761.RESOURCES
C:\SOFTWARE DEVELOPMENT\EE'S\EE1131, 64X NEW APS CAL SW\EE1131V1000\EE1131\OBJ\DEBUG\EE1131.FRMROUTING.RESOURCES
C:\SOFTWARE DEVELOPMENT\EE'S\EE1131, 64X NEW APS CAL SW\EE1131V1000\EE1131\OBJ\DEBUG\EE1131.FRMTESTPRINTREJECTLABELS.RESOURCES
C:\SOFTWARE DEVELOPMENT\EE'S\EE1131, 64X NEW APS CAL SW\EE1131V1000\EE1131\OBJ\DEBUG\EE1131.FRMTSOPMAIN.RESOURCES
C:\SOFTWARE DEVELOPMENT\EE'S\EE1131, 64X NEW APS CAL SW\EE1131V1000\EE1131\OBJ\DEBUG\EE1131.RESOURCES.RESOURCES
